# Blender MTL File: 'personaje.blend'
# Material Count: 3

newmtl Botas
Ns 96.078431
Ka 0.000000 0.000000 0.000000
Kd 0.039911 0.039911 0.039911
Ks 0.500000 0.500000 0.500000
Ni 1.000000
d 1.000000
illum 2

newmtl Cuero
Ns 96.078431
Ka 0.000000 0.000000 0.000000
Kd 0.414933 0.209754 0.000000
Ks 0.500000 0.500000 0.500000
Ni 1.000000
d 1.000000
illum 2

newmtl Tunica
Ns 96.078431
Ka 0.000000 0.000000 0.000000
Kd 0.224507 0.640000 0.000000
Ks 0.024944 0.024944 0.024944
Ni 1.000000
d 1.000000
illum 2
